{
  "paths": {
    "/products": {
      "get": {
        "deprecated": false,
        "description": "",
        "responses": {
          "200": {
            "description": "response",
            "content": {
              "application/json": {
                "schema": {
                  "type": "array",
                  "items": {
                    "$ref": "#/components/schemas/Product"
                  }
                }
              }
            }
          },
          "403": {
            "description": "Forbidden",
            "content": {
              "application/json": {
                "schema": {
                  "$ref": "#/components/schemas/Error"
                }
              }
            }
          },
          "404": {
            "description": "Not found",
            "content": {
              "application/json": {
                "schema": {
                  "$ref": "#/components/schemas/Error"
                }
              }
            }
          },
          "default": {
            "description": "unexpected error",
            "content": {
              "application/json": {
                "schema": {
                  "$ref": "#/components/schemas/Error"
                }
              }
            }
          }
        },
        "summary": "",
        "tags": [
          "Product"
        ],
        "parameters": [
          {
            "name": "_limit",
            "in": "query",
            "required": false,
            "description": "Maximum number of results possible",
            "schema": {
              "type": "integer"
            },
            "deprecated": false
          },
          {
            "name": "_sort",
            "in": "query",
            "required": false,
            "description": "Sort according to a specific field.",
            "schema": {
              "type": "string"
            },
            "deprecated": false
          },
          {
            "name": "_start",
            "in": "query",
            "required": false,
            "description": "Skip a specific number of entries (especially useful for pagination)",
            "schema": {
              "type": "integer"
            },
            "deprecated": false
          },
          {
            "name": "=",
            "in": "query",
            "required": false,
            "description": "Get entries that matches exactly your input",
            "schema": {
              "type": "string"
            },
            "deprecated": false
          },
          {
            "name": "_ne",
            "in": "query",
            "required": false,
            "description": "Get records that are not equals to something",
            "schema": {
              "type": "string"
            },
            "deprecated": false
          },
          {
            "name": "_lt",
            "in": "query",
            "required": false,
            "description": "Get record that are lower than a value",
            "schema": {
              "type": "string"
            },
            "deprecated": false
          },
          {
            "name": "_lte",
            "in": "query",
            "required": false,
            "description": "Get records that are lower than or equal to a value",
            "schema": {
              "type": "string"
            },
            "deprecated": false
          },
          {
            "name": "_gt",
            "in": "query",
            "required": false,
            "description": "Get records that are greater than a value",
            "schema": {
              "type": "string"
            },
            "deprecated": false
          },
          {
            "name": "_gte",
            "in": "query",
            "required": false,
            "description": "Get records that are greater than  or equal a value",
            "schema": {
              "type": "string"
            },
            "deprecated": false
          },
          {
            "name": "_contains",
            "in": "query",
            "required": false,
            "description": "Get records that contains a value",
            "schema": {
              "type": "string"
            },
            "deprecated": false
          },
          {
            "name": "_containss",
            "in": "query",
            "required": false,
            "description": "Get records that contains (case sensitive) a value",
            "schema": {
              "type": "string"
            },
            "deprecated": false
          },
          {
            "name": "_in",
            "in": "query",
            "required": false,
            "description": "Get records that matches any value in the array of values",
            "schema": {
              "type": "array"
            },
            "deprecated": false
          },
          {
            "name": "_nin",
            "in": "query",
            "required": false,
            "description": "Get records that doesn't match any value in the array of values",
            "schema": {
              "type": "array"
            },
            "deprecated": false
          }
        ]
      },
      "post": {
        "deprecated": false,
        "description": "Create a new record",
        "responses": {
          "200": {
            "description": "response",
            "content": {
              "application/json": {
                "schema": {
                  "$ref": "#/components/schemas/Product"
                }
              }
            }
          },
          "403": {
            "description": "Forbidden",
            "content": {
              "application/json": {
                "schema": {
                  "$ref": "#/components/schemas/Error"
                }
              }
            }
          },
          "404": {
            "description": "Not found",
            "content": {
              "application/json": {
                "schema": {
                  "$ref": "#/components/schemas/Error"
                }
              }
            }
          },
          "default": {
            "description": "unexpected error",
            "content": {
              "application/json": {
                "schema": {
                  "$ref": "#/components/schemas/Error"
                }
              }
            }
          }
        },
        "summary": "",
        "tags": [
          "Product"
        ],
        "requestBody": {
          "description": "",
          "required": true,
          "content": {
            "application/json": {
              "schema": {
                "$ref": "#/components/schemas/NewProduct"
              }
            }
          }
        }
      }
    },
    "/products/count": {
      "get": {
        "deprecated": false,
        "description": "",
        "responses": {
          "200": {
            "description": "response",
            "content": {
              "application/json": {
                "schema": {
                  "properties": {
                    "count": {
                      "type": "integer"
                    }
                  }
                }
              }
            }
          },
          "403": {
            "description": "Forbidden",
            "content": {
              "application/json": {
                "schema": {
                  "$ref": "#/components/schemas/Error"
                }
              }
            }
          },
          "404": {
            "description": "Not found",
            "content": {
              "application/json": {
                "schema": {
                  "$ref": "#/components/schemas/Error"
                }
              }
            }
          },
          "default": {
            "description": "unexpected error",
            "content": {
              "application/json": {
                "schema": {
                  "$ref": "#/components/schemas/Error"
                }
              }
            }
          }
        },
        "summary": "",
        "tags": [
          "Product"
        ],
        "parameters": []
      }
    },
    "/products/{_id}": {
      "get": {
        "deprecated": false,
        "description": "",
        "responses": {
          "200": {
            "description": "response",
            "content": {
              "application/json": {
                "schema": {
                  "$ref": "#/components/schemas/Product"
                }
              }
            }
          },
          "403": {
            "description": "Forbidden",
            "content": {
              "application/json": {
                "schema": {
                  "$ref": "#/components/schemas/Error"
                }
              }
            }
          },
          "404": {
            "description": "Not found",
            "content": {
              "application/json": {
                "schema": {
                  "$ref": "#/components/schemas/Error"
                }
              }
            }
          },
          "default": {
            "description": "unexpected error",
            "content": {
              "application/json": {
                "schema": {
                  "$ref": "#/components/schemas/Error"
                }
              }
            }
          }
        },
        "summary": "",
        "tags": [
          "Product"
        ],
        "parameters": [
          {
            "name": "_id",
            "in": "path",
            "description": "",
            "deprecated": false,
            "required": true,
            "schema": {
              "type": "string"
            }
          }
        ]
      },
      "put": {
        "deprecated": false,
        "description": "Update a record",
        "responses": {
          "200": {
            "description": "response",
            "content": {
              "application/json": {
                "schema": {
                  "$ref": "#/components/schemas/Product"
                }
              }
            }
          },
          "403": {
            "description": "Forbidden",
            "content": {
              "application/json": {
                "schema": {
                  "$ref": "#/components/schemas/Error"
                }
              }
            }
          },
          "404": {
            "description": "Not found",
            "content": {
              "application/json": {
                "schema": {
                  "$ref": "#/components/schemas/Error"
                }
              }
            }
          },
          "default": {
            "description": "unexpected error",
            "content": {
              "application/json": {
                "schema": {
                  "$ref": "#/components/schemas/Error"
                }
              }
            }
          }
        },
        "summary": "",
        "tags": [
          "Product"
        ],
        "requestBody": {
          "description": "",
          "required": true,
          "content": {
            "application/json": {
              "schema": {
                "$ref": "#/components/schemas/NewProduct"
              }
            }
          }
        },
        "parameters": [
          {
            "name": "_id",
            "in": "path",
            "description": "",
            "deprecated": false,
            "required": true,
            "schema": {
              "type": "string"
            }
          }
        ]
      },
      "delete": {
        "deprecated": false,
        "description": "Delete a record",
        "responses": {
          "200": {
            "description": "deletes a single record based on the ID supplied",
            "content": {
              "application/json": {
                "schema": {
                  "type": "integer",
                  "format": "int64"
                }
              }
            }
          },
          "403": {
            "description": "Forbidden",
            "content": {
              "application/json": {
                "schema": {
                  "$ref": "#/components/schemas/Error"
                }
              }
            }
          },
          "404": {
            "description": "Not found",
            "content": {
              "application/json": {
                "schema": {
                  "$ref": "#/components/schemas/Error"
                }
              }
            }
          },
          "default": {
            "description": "unexpected error",
            "content": {
              "application/json": {
                "schema": {
                  "$ref": "#/components/schemas/Error"
                }
              }
            }
          }
        },
        "summary": "",
        "tags": [
          "Product"
        ],
        "parameters": [
          {
            "name": "_id",
            "in": "path",
            "description": "",
            "deprecated": false,
            "required": true,
            "schema": {
              "type": "string"
            }
          }
        ]
      }
    }
  },
  "components": {
    "schemas": {
      "Product": {
        "required": [
          "id",
          "image",
          "name",
          "price",
          "priceDiscount",
          "duration",
          "durationOption"
        ],
        "properties": {
          "id": {
            "type": "string"
          },
          "image": {
            "type": "array",
            "items": {
              "required": [
                "id",
                "name",
                "hash",
                "mime",
                "size",
                "url",
                "provider"
              ],
              "properties": {
                "id": {
                  "type": "string"
                },
                "name": {
                  "type": "string"
                },
                "hash": {
                  "type": "string"
                },
                "sha256": {
                  "type": "string"
                },
                "ext": {
                  "type": "string"
                },
                "mime": {
                  "type": "string"
                },
                "size": {
                  "type": "string"
                },
                "url": {
                  "type": "string"
                },
                "provider": {
                  "type": "string"
                },
                "public_id": {
                  "type": "string"
                },
                "related": {
                  "type": "string"
                }
              }
            }
          },
          "name": {
            "type": "string",
            "default": "",
            "maxLength": 191,
            "minLength": 10
          },
          "price": {
            "type": "integer",
            "default": 0
          },
          "priceDiscount": {
            "type": "number",
            "default": 0
          },
          "minParticipant": {
            "type": "integer",
            "default": 1
          },
          "duration": {
            "type": "integer",
            "default": 1
          },
          "durationOption": {
            "type": "string",
            "default": "hari",
            "enum": [
              "jam",
              "hari",
              "minggu",
              "bulan"
            ]
          },
          "plans": {
            "type": "array",
            "items": {
              "required": [
                "id",
                "day",
                "list"
              ],
              "properties": {
                "id": {
                  "type": "string"
                },
                "day": {
                  "type": "integer"
                },
                "list": {
                  "type": "string"
                },
                "product": {
                  "type": "string"
                },
                "order": {
                  "type": "string"
                }
              }
            }
          },
          "status": {
            "type": "boolean",
            "default": true
          },
          "order": {
            "required": [
              "id",
              "price",
              "priceDiscount",
              "orderStatus",
              "date"
            ],
            "properties": {
              "id": {
                "type": "string"
              },
              "product": {
                "type": "string"
              },
              "price": {
                "type": "number"
              },
              "priceDiscount": {
                "type": "number"
              },
              "orderStatus": {
                "type": "string"
              },
              "active": {
                "type": "boolean"
              },
              "paidStatus": {
                "type": "boolean"
              },
              "plans": {
                "type": "array",
                "items": {
                  "type": "string"
                }
              },
              "user": {
                "type": "string"
              },
              "participants": {
                "type": "array",
                "items": {
                  "type": "string"
                }
              },
              "done": {
                "type": "boolean"
              },
              "date": {
                "type": "string"
              },
              "city": {
                "type": "string"
              },
              "province": {
                "type": "string"
              }
            }
          },
          "favourite": {
            "required": [
              "id"
            ],
            "properties": {
              "id": {
                "type": "string"
              },
              "user": {
                "type": "string"
              },
              "product": {
                "type": "string"
              },
              "active": {
                "type": "boolean"
              }
            }
          },
          "province": {
            "required": [
              "id",
              "description"
            ],
            "properties": {
              "id": {
                "type": "string"
              },
              "name": {
                "type": "string"
              },
              "city": {
                "type": "string"
              },
              "product": {
                "type": "string"
              },
              "description": {
                "type": "string"
              },
              "image": {
                "type": "string"
              },
              "order": {
                "type": "string"
              }
            }
          },
          "city": {
            "required": [
              "id"
            ],
            "properties": {
              "id": {
                "type": "string"
              },
              "name": {
                "type": "string"
              },
              "province": {
                "type": "string"
              },
              "product": {
                "type": "string"
              },
              "order": {
                "type": "string"
              }
            }
          },
          "hobbies": {
            "type": "array",
            "items": {
              "required": [
                "id",
                "image",
                "description"
              ],
              "properties": {
                "id": {
                  "type": "string"
                },
                "name": {
                  "type": "string"
                },
                "products": {
                  "type": "array",
                  "items": {
                    "type": "string"
                  }
                },
                "image": {
                  "type": "string"
                },
                "description": {
                  "type": "string"
                }
              }
            }
          }
        }
      },
      "NewProduct": {
        "required": [
          "name",
          "price",
          "priceDiscount",
          "duration",
          "durationOption"
        ],
        "properties": {
          "name": {
            "type": "string",
            "default": "",
            "maxLength": 191,
            "minLength": 10
          },
          "price": {
            "type": "integer",
            "default": 0
          },
          "priceDiscount": {
            "type": "number",
            "default": 0
          },
          "minParticipant": {
            "type": "integer",
            "default": 1
          },
          "duration": {
            "type": "integer",
            "default": 1
          },
          "durationOption": {
            "type": "string",
            "default": "hari",
            "enum": [
              "jam",
              "hari",
              "minggu",
              "bulan"
            ]
          },
          "plans": {
            "type": "array",
            "items": {
              "type": "string"
            }
          },
          "status": {
            "type": "boolean",
            "default": true
          },
          "order": {
            "type": "string"
          },
          "favourite": {
            "type": "string"
          },
          "province": {
            "type": "string"
          },
          "city": {
            "type": "string"
          },
          "hobbies": {
            "type": "array",
            "items": {
              "type": "string"
            }
          }
        }
      }
    }
  },
  "tags": [
    {
      "name": "Product"
    }
  ]
}