{
  "routes": [
    {
      "method": "GET",
      "path": "/cities",
      "handler": "City.find",
      "config": {
        "policies": []
      }
    },
    {
      "method": "GET",
      "path": "/cities/count",
      "handler": "City.count",
      "config": {
        "policies": []
      }
    },
    {
      "method": "GET",
      "path": "/cities/:_id",
      "handler": "City.findOne",
      "config": {
        "policies": []
      }
    },
    {
      "method": "POST",
      "path": "/cities",
      "handler": "City.create",
      "config": {
        "policies": []
      }
    },
    {
      "method": "PUT",
      "path": "/cities/:_id",
      "handler": "City.update",
      "config": {
        "policies": []
      }
    },
    {
      "method": "DELETE",
      "path": "/cities/:_id",
      "handler": "City.destroy",
      "config": {
        "policies": []
      }
    }
  ]
}
