{
  "defaultConnection": "default",
  "connections": {
    "default": {
      "settings": {
        "client": "mongo",
        "host": "localhost",
        "srv": false,
        "port": "27017",
        "database": "db_desata",
        "username": "desata",
        "password": "Desata9400"
      },
      "options": {
        "authenticationDatabase": "admin",
        "ssl": false,
        "timestamps": true
      },
      "connector": "strapi-hook-mongoose"
    }
  }
}
