{
  "connection": "default",
  "collectionName": "content-term",
  "info": {
    "name": "term",
    "description": "term terdiri dari aturan privasi dan syarat dan ketentuan"
  },
  "options": {
    "timestamps": true
  },
  "attributes": {
    "slug": {
      "default": "",
      "maxLength": 60,
      "unique": true,
      "minLength": 3,
      "type": "string",
      "required": true
    },
    "description": {
      "default": "",
      "minLength": 3,
      "type": "string",
      "required": true
    },
    "content": {
      "default": "",
      "type": "text",
      "required": true
    },
    "image": {
      "model": "file",
      "via": "related",
      "plugin": "upload",
      "required": true
    }
  }
}